<?xml version="1.0" encoding="utf-8"?>
<!-- Generator: Adobe Illustrator 15.0.0, SVG Export Plug-In . SVG Version: 6.00 Build 0)  -->
<!DOCTYPE svg PUBLIC "-//W3C//DTD SVG 1.1//EN" "http://www.w3.org/Graphics/SVG/1.1/DTD/svg11.dtd">
<svg version="1.1" id="Capa_1" xmlns="http://www.w3.org/2000/svg" xmlns:xlink="http://www.w3.org/1999/xlink" x="0px" y="0px"
	 width="312px" height="42px" viewBox="0 0 312 42" enable-background="new 0 0 312 42" xml:space="preserve">
<g>
	<path fill="#FFFFFF" d="M29.618,10.5V1.852c6.28-1.078,11.583,2.346,13.526,8.614c0.506,1.63,0.524,3.455,1.25,4.957
		c0.423,0.878,1.841,1.831,2.74,1.767c0.88-0.064,2.342-1.343,2.385-2.15c0.232-4.477,0.111-8.973,0.111-13.405
		c7.004-0.541,11.707,2.511,13.615,9.158c0.963,3.353,1.183,6.981,1.3,10.5c0.198,5.866,0.049,11.743,0.028,17.615
		c-0.001,0.354-0.162,0.706-0.246,1.044c-8.155,2.016-13.423-0.711-19.792-10.711v10.917c-6.958,0.443-9.484-1.419-14.511-10.804
		v10.594c-6.438,0.948-9.107-0.885-14.378-9.846v9.679c-5.199,1.308-10.203-1.058-12.447-6.159c-1.21-2.753-2.197-5.824-2.321-8.794
		C0.558,17.165,0.772,9.481,0.772,1.452c6.948-0.329,11.243,3.012,14.224,9.105V1.457C22.278,1.125,26.571,4.456,29.618,10.5"/>
	<g>
		<path fill="#FFFFFF" d="M93.102,28.468l-3.057-9.962h-0.078c0.11,2.026,0.165,3.378,0.165,4.057v5.905h-2.406V15.77h3.665
			l3.005,9.71h0.052l3.188-9.71h3.666v12.698h-2.51v-6.011c0-0.283,0.004-0.61,0.013-0.981c0.008-0.371,0.048-1.355,0.117-2.953
			h-0.078l-3.274,9.945H93.102z"/>
		<path fill="#FFFFFF" d="M112.699,28.468h-7.313V15.77h7.313v2.206h-4.621v2.788h4.299v2.207h-4.299v3.273h4.621V28.468z"/>
		<path fill="#FFFFFF" d="M123.732,24.941c0,1.146-0.412,2.05-1.237,2.71s-1.973,0.99-3.444,0.99c-1.355,0-2.553-0.255-3.596-0.765
			v-2.501c0.857,0.382,1.582,0.651,2.176,0.808c0.593,0.156,1.136,0.234,1.628,0.234c0.59,0,1.043-0.113,1.359-0.339
			c0.315-0.226,0.473-0.562,0.473-1.007c0-0.25-0.069-0.471-0.208-0.665c-0.139-0.194-0.343-0.38-0.612-0.56
			c-0.269-0.18-0.818-0.467-1.646-0.86c-0.776-0.364-1.358-0.715-1.746-1.051s-0.698-0.727-0.929-1.172
			c-0.232-0.446-0.348-0.967-0.348-1.563c0-1.124,0.381-2.006,1.142-2.649c0.762-0.643,1.814-0.964,3.157-0.964
			c0.66,0,1.29,0.078,1.889,0.235c0.599,0.156,1.226,0.376,1.88,0.66l-0.869,2.093c-0.677-0.278-1.238-0.472-1.681-0.582
			c-0.443-0.11-0.878-0.165-1.307-0.165c-0.509,0-0.9,0.119-1.172,0.356c-0.272,0.237-0.408,0.547-0.408,0.929
			c0,0.237,0.055,0.444,0.165,0.621s0.285,0.347,0.525,0.512s0.809,0.462,1.707,0.89c1.187,0.568,2,1.136,2.441,1.707
			C123.513,23.414,123.732,24.113,123.732,24.941z"/>
		<path fill="#FFFFFF" d="M134.697,28.468l-0.921-3.022h-4.629l-0.92,3.022h-2.901l4.481-12.75h3.292l4.499,12.75H134.697z
			 M133.134,23.188c-0.851-2.739-1.331-4.288-1.438-4.647c-0.107-0.359-0.184-0.643-0.23-0.851
			c-0.191,0.741-0.738,2.574-1.642,5.498H133.134z"/>
		<path fill="#FFFFFF" d="M156,28.468h-2.684v-5.48h-5.029v5.48h-2.692V15.77h2.692v4.977h5.029V15.77H156V28.468z"/>
		<path fill="#FFFFFF" d="M167.408,28.468h-7.313V15.77h7.313v2.206h-4.621v2.788h4.299v2.207h-4.299v3.273h4.621V28.468z"/>
		<path fill="#FFFFFF" d="M173.639,23.596v4.872h-2.693V15.77h3.7c1.726,0,3.003,0.314,3.831,0.942
			c0.827,0.628,1.241,1.582,1.241,2.862c0,0.747-0.206,1.411-0.616,1.993c-0.412,0.582-0.994,1.038-1.746,1.368
			c1.91,2.854,3.156,4.698,3.734,5.532h-2.987l-3.031-4.872H173.639z M173.639,21.407h0.868c0.851,0,1.479-0.142,1.885-0.426
			S177,20.251,177,19.644c0-0.602-0.207-1.031-0.621-1.286c-0.414-0.254-1.056-0.382-1.924-0.382h-0.816V21.407z"/>
		<path fill="#FFFFFF" d="M188.953,28.468l-3.057-9.962h-0.078c0.109,2.026,0.165,3.378,0.165,4.057v5.905h-2.405V15.77h3.664
			l3.006,9.71h0.052l3.188-9.71h3.665v12.698h-2.51v-6.011c0-0.283,0.004-0.61,0.014-0.981c0.008-0.371,0.047-1.355,0.117-2.953
			h-0.078l-3.275,9.945H188.953z"/>
		<path fill="#FFFFFF" d="M209.012,28.468l-0.921-3.022h-4.63l-0.92,3.022h-2.9l4.48-12.75h3.293l4.498,12.75H209.012z
			 M207.448,23.188c-0.851-2.739-1.331-4.288-1.438-4.647c-0.107-0.359-0.185-0.643-0.229-0.851
			c-0.191,0.741-0.738,2.574-1.643,5.498H207.448z"/>
		<path fill="#FFFFFF" d="M225.664,28.468h-3.422l-5.523-9.606h-0.078c0.109,1.697,0.165,2.907,0.165,3.63v5.976H214.4V15.77h3.396
			l5.515,9.51h0.061c-0.086-1.65-0.13-2.817-0.13-3.5v-6.01h2.423V28.468z"/>
		<path fill="#FFFFFF" d="M241.275,22.102c0,2.102-0.521,3.717-1.563,4.846c-1.042,1.13-2.536,1.694-4.481,1.694
			s-3.439-0.564-4.482-1.694c-1.041-1.129-1.563-2.75-1.563-4.863s0.522-3.727,1.567-4.842c1.046-1.115,2.544-1.672,4.495-1.672
			s3.443,0.562,4.477,1.685C240.758,18.378,241.275,19.994,241.275,22.102z M232.008,22.102c0,1.418,0.27,2.486,0.809,3.205
			c0.538,0.718,1.343,1.076,2.414,1.076c2.148,0,3.223-1.427,3.223-4.281c0-2.86-1.068-4.291-3.205-4.291
			c-1.072,0-1.879,0.36-2.424,1.081C232.28,19.613,232.008,20.683,232.008,22.102z"/>
		<path fill="#FFFFFF" d="M252.291,24.941c0,1.146-0.412,2.05-1.236,2.71c-0.826,0.66-1.974,0.99-3.444,0.99
			c-1.354,0-2.554-0.255-3.596-0.765v-2.501c0.856,0.382,1.582,0.651,2.176,0.808c0.593,0.156,1.136,0.234,1.628,0.234
			c0.591,0,1.044-0.113,1.359-0.339c0.316-0.226,0.474-0.562,0.474-1.007c0-0.25-0.069-0.471-0.208-0.665s-0.344-0.38-0.613-0.56
			c-0.269-0.18-0.817-0.467-1.646-0.86c-0.776-0.364-1.358-0.715-1.745-1.051c-0.389-0.336-0.698-0.727-0.93-1.172
			c-0.232-0.446-0.348-0.967-0.348-1.563c0-1.124,0.381-2.006,1.143-2.649c0.762-0.643,1.813-0.964,3.156-0.964
			c0.66,0,1.291,0.078,1.89,0.235c0.599,0.156,1.226,0.376,1.88,0.66l-0.868,2.093c-0.677-0.278-1.237-0.472-1.681-0.582
			c-0.443-0.11-0.879-0.165-1.307-0.165c-0.51,0-0.9,0.119-1.173,0.356s-0.408,0.547-0.408,0.929c0,0.237,0.056,0.444,0.165,0.621
			s0.285,0.347,0.525,0.512s0.809,0.462,1.707,0.89c1.187,0.568,2,1.136,2.44,1.707S252.291,24.113,252.291,24.941z"/>
		<path fill="#FFFFFF" d="M272.734,28.468h-3.273l-0.999-0.981c-1.106,0.77-2.356,1.155-3.752,1.155
			c-1.413,0-2.533-0.324-3.361-0.973s-1.241-1.526-1.241-2.632c0-0.793,0.174-1.469,0.525-2.027c0.35-0.56,0.95-1.082,1.802-1.568
			c-0.435-0.498-0.75-0.974-0.946-1.429c-0.197-0.455-0.296-0.951-0.296-1.49c0-0.88,0.337-1.589,1.012-2.127
			c0.675-0.539,1.577-0.808,2.706-0.808c1.076,0,1.938,0.25,2.584,0.751c0.645,0.501,0.968,1.171,0.968,2.011
			c0,0.689-0.2,1.319-0.599,1.889c-0.4,0.571-1.046,1.113-1.938,1.629l2.467,2.406c0.411-0.678,0.768-1.549,1.068-2.615h2.762
			c-0.209,0.782-0.495,1.544-0.859,2.289c-0.365,0.744-0.779,1.402-1.242,1.976L272.734,28.468z M262.895,24.785
			c0,0.498,0.188,0.895,0.561,1.189c0.373,0.296,0.853,0.443,1.438,0.443c0.729,0,1.387-0.176,1.971-0.529l-2.883-2.867
			c-0.336,0.256-0.602,0.521-0.795,0.8S262.895,24.42,262.895,24.785z M266.013,18.627c0-0.307-0.104-0.549-0.313-0.725
			c-0.208-0.177-0.478-0.265-0.808-0.265c-0.389,0-0.693,0.093-0.916,0.278c-0.224,0.186-0.335,0.449-0.335,0.791
			c0,0.51,0.274,1.071,0.825,1.685c0.498-0.278,0.88-0.552,1.146-0.821C265.879,19.3,266.013,18.986,266.013,18.627z"/>
		<path fill="#FFFFFF" d="M286.126,17.828c-1.013,0-1.798,0.381-2.354,1.142c-0.555,0.762-0.833,1.823-0.833,3.184
			c0,2.83,1.063,4.246,3.188,4.246c0.892,0,1.972-0.223,3.239-0.668v2.258c-1.042,0.434-2.205,0.651-3.491,0.651
			c-1.847,0-3.26-0.561-4.238-1.681c-0.979-1.121-1.468-2.729-1.468-4.824c0-1.321,0.24-2.477,0.721-3.47s1.171-1.754,2.071-2.284
			s1.956-0.795,3.166-0.795c1.233,0,2.472,0.298,3.718,0.895l-0.869,2.189c-0.475-0.226-0.953-0.423-1.434-0.591
			S286.589,17.828,286.126,17.828z"/>
		<path fill="#FFFFFF" d="M292.956,28.468V15.77h2.692v12.698H292.956z"/>
		<path fill="#FFFFFF" d="M307.508,28.468l-0.921-3.022h-4.63l-0.92,3.022h-2.9l4.48-12.75h3.293l4.498,12.75H307.508z
			 M305.944,23.188c-0.851-2.739-1.331-4.288-1.438-4.647c-0.107-0.359-0.185-0.643-0.229-0.851
			c-0.191,0.741-0.738,2.574-1.643,5.498H305.944z"/>
	</g>
</g>
</svg>
